…
We can see what wells are in our data with `wells_used()`

    plate %>% wells_used()

    #> [1] "A01" "A05" "C01" "C05" "F05"

There are 5 wells because the sample data folder has 5 well files.

We can see all the droplets data with `plate_data()`

    plate %>% plate_data()

    #> # A tibble: 72,727 x 4
    #>    well    HEX   FAM cluster
    #>    <chr> <int> <int>   <int>
    #>  1 A01     577   494       1
    #>  2 A01     515   495       1
    #>  3 A01     690   645       1
    #>  4 A01     929   860       1
    #>  5 A01     844   868       1
    #>  6 A01     942   907       1
    #>  7 A01     985   923       1
    #>  8 A01    1058   966       1
    #>  9 A01    1058   979       1
    #> 10 A01    1095  1002       1
    #> # ... with 72,717 more rows
…
    plate

    #>         ddpcr plate
    #>        -------------
    #> Dataset name : small
    #> Data summary : 4 wells; 57,350 drops
    #>   Plate type : ddpcr_plate
    #>       Status : Analysis completed

We now get a message that says the analysis is complete (earlier it said
which steps were remaining). We can also look at the droplets data

    plate %>% plate_data()

    #> # A tibble: 57,350 x 4
    #>    well    HEX   FAM cluster
    #>    <chr> <int> <int>   <int>
    #>  1 A01     577   494       4
    #>  2 A01     515   495       4
    #>  3 A01     690   645       4
    #>  4 A01     929   860       4
    #>  5 A01     844   868       4
    #>  6 A01     942   907       4
    #>  7 A01     985   923       4
    #>  8 A01    1058   966       4
    #>  9 A01    1058   979       4
    #> 10 A01    1095  1002       4
    #> # ... with 57,340 more rows
…
